…
``` r
tax_df %>% 
  ungroup() %>%
  select(qseqid) %>%
  unique()
```

    ## # A tibble: 695 × 1
    ##    qseqid
    ##    <chr> 
    ##  1 ASV1  
    ##  2 ASV2  
    ##  3 ASV3  
    ##  4 ASV4  
    ##  5 ASV5  
    ##  6 ASV6  
    ##  7 ASV7  
    ##  8 ASV8  
    ##  9 ASV9  
    ## 10 ASV10 
    ## # ℹ 685 more rows
…
``` r
# 1. sequences that are unambiguously a single species
single_spp_seqs <- fixed_tax_df %>% 
  group_by(qseqid) %>%
  add_tally(name = "n_taxa") %>%
  filter(n_taxa == 1)
  
single_spp_seqs
```

    ## # A tibble: 125 × 11
    ## # Groups:   qseqid [125]
    ##    qseqid perc_id length kingdom  phylum class order family genus species n_taxa
    ##    <chr>    <dbl>  <int> <chr>    <chr>  <chr> <chr> <chr>  <chr> <chr>    <int>
    ##  1 ASV9     100      169 Eukaryo… Chord… Acti… "Per… Hexag… Pleu… Pleuro…      1
    ##  2 ASV26    100      168 Eukaryo… Chord… Acti… ""    Embio… Cyma… Cymato…      1
    ##  3 ASV42    100      169 Eukaryo… Chord… Acti… "Per… Hexag… Ophi… Ophiod…      1
    ##  4 ASV48     98.2    170 Eukaryo… Chord… Acti… "Sal… Salmo… Onco… Oncorh…      1
    ##  5 ASV92    100      173 Eukaryo… Chord… Acti… "Aul… Notos… Scop… Scopel…      1
    ##  6 ASV116    98.3    180 Eukaryo… Chord… Acti… "Aci… Acipe… Acip… Acipen…      1
    ##  7 ASV122    99.4    169 Eukaryo… Chord… Acti… "Per… Hexag… Pleu… Pleuro…      1
    ##  8 ASV125   100      173 Eukaryo… Chord… Acti… "Clu… Engra… Engr… Engrau…      1
    ##  9 ASV126   100      168 Eukaryo… Chord… Mamm… "Car… Otari… Eume… Eumeto…      1
    ## 10 ASV128    99.4    169 Eukaryo… Chord… Acti… "Per… Hexag… Pleu… Pleuro…      1
    ## # ℹ 115 more rows
…
    ## Joining with `by = join_by(qseqid, perc_id, length, kingdom, phylum, class,
    ## order, family, genus, species)`
    ## `summarise()` has grouped output by 'qseqid', 'species', 'genus', 'family',
    ## 'order', 'class', 'phylum', 'kingdom'. You can override using the `.groups`
    ## argument.

``` r
seq_id_diff %>%
  filter(diff > 0)
```

    ## # A tibble: 3,496 × 12
    ## # Groups:   qseqid [442]
    ##    qseqid species     genus family order class phylum kingdom seq_percID id_rank
    ##    <chr>  <chr>       <chr> <chr>  <chr> <chr> <chr>  <chr>        <dbl>   <int>
    ##  1 ASV629 Oncorhynch… Onco… Salmo… Salm… Acti… Chord… Eukary…       99.4       2
    ##  2 ASV29  Oncorhynch… Onco… Salmo… Salm… Acti… Chord… Eukary…       99.4       2
    ##  3 ASV72  Oncorhynch… Onco… Salmo… Salm… Acti… Chord… Eukary…       99.4       2
    ##  4 ASV245 Microgadus… Micr… Gadid… Gadi… Acti… Chord… Eukary…       98.8       2
    ##  5 ASV408 Oncorhynch… Onco… Salmo… Salm… Acti… Chord… Eukary…       98.8       2
    ##  6 ASV43  Liopsetta … Liop… Pleur… Pleu… Acti… Chord… Eukary…       99.4       3
    ##  7 ASV43  Myzopsetta… Myzo… Pleur… Pleu… Acti… Chord… Eukary…       99.4       3
    ##  8 ASV43  Myzopsetta… Myzo… Pleur… Pleu… Acti… Chord… Eukary…       99.4       3
    ##  9 ASV43  Platichthy… Plat… Pleur… Pleu… Acti… Chord… Eukary…       99.4       3
    ## 10 ASV43  Platichthy… Plat… Pleur… Pleu… Acti… Chord… Eukary…       99.4       3
    ## # ℹ 3,486 more rows
    ## # ℹ 2 more variables: top_perc <dbl>, diff <dbl>
…
``` r
to_check_range
```

    ## # A tibble: 271 × 6
    ##    species                      genus           family        order class phylum
    ##    <chr>                        <chr>           <chr>         <chr> <chr> <chr> 
    ##  1 Liopsetta glacialis          Liopsetta       Pleuronectid… Pleu… Acti… Chord…
    ##  2 Myzopsetta ferruginea        Myzopsetta      Pleuronectid… Pleu… Acti… Chord…
    ##  3 Platichthys flesus           Platichthys     Pleuronectid… Pleu… Acti… Chord…
    ##  4 Platichthys stellatus        Platichthys     Pleuronectid… Pleu… Acti… Chord…
    ##  5 Cleisthenes herzensteini     Cleisthenes     Pleuronectid… Pleu… Acti… Chord…
    ##  6 Cleisthenes pinetorum        Cleisthenes     Pleuronectid… Pleu… Acti… Chord…
    ##  7 Hippoglossoides dubius       Hippoglossoides Pleuronectid… Pleu… Acti… Chord…
    ##  8 Hippoglossoides elassodon    Hippoglossoides Pleuronectid… Pleu… Acti… Chord…
    ##  9 Hippoglossoides platessoides Hippoglossoides Pleuronectid… Pleu… Acti… Chord…
    ## 10 Hippoglossoides robustus     Hippoglossoides Pleuronectid… Pleu… Acti… Chord…
    ## # ℹ 261 more rows

Create output taxonomy data frames

``` r
uncollapsed_taxonomy <- sorted_tax_df %>%
  select(-top_perc, -id_rank) %>%
  unique()


# quick look at the taxonomy before collapsing it:
uncollapsed_taxonomy
```

    ## # A tibble: 5,093 × 12
    ##    qseqid species       genus family order class phylum kingdom seq_percID  diff
    ##    <chr>  <chr>         <chr> <chr>  <chr> <chr> <chr>  <chr>        <dbl> <dbl>
    ##  1 ASV386 Liopsetta gl… Liop… Pleur… Pleu… Acti… Chord… Eukary…      100   0    
    ##  2 ASV386 Myzopsetta f… Myzo… Pleur… Pleu… Acti… Chord… Eukary…      100   0    
    ##  3 ASV386 Platichthys … Plat… Pleur… Pleu… Acti… Chord… Eukary…      100   0    
    ##  4 ASV386 Platichthys … Plat… Pleur… Pleu… Acti… Chord… Eukary…      100   0    
    ##  5 ASV386 Cleisthenes … Clei… Pleur… Pleu… Acti… Chord… Eukary…       99.4 0.592
    ##  6 ASV386 Cleisthenes … Clei… Pleur… Pleu… Acti… Chord… Eukary…       99.4 0.592
    ##  7 ASV386 Hippoglossoi… Hipp… Pleur… Pleu… Acti… Chord… Eukary…       99.4 0.592
    ##  8 ASV386 Hippoglossoi… Hipp… Pleur… Pleu… Acti… Chord… Eukary…       99.4 0.592
    ##  9 ASV386 Hippoglossoi… Hipp… Pleur… Pleu… Acti… Chord… Eukary…       99.4 0.592
    ## 10 ASV386 Hippoglossoi… Hipp… Pleur… Pleu… Acti… Chord… Eukary…       99.4 0.592
    ## # ℹ 5,083 more rows
    ## # ℹ 2 more variables: taxonomic_level <chr>, taxon <chr>

``` r
# and then collapse that down to just a single taxon per ASV
collapsed_taxonomy <- uncollapsed_taxonomy %>%
  select(qseqid, taxon, taxonomic_level) %>%
  unique()

# then remove those high level taxonomic assignments that aren't informative
collapsed_taxonomy %>%
  #filter(!taxonomic_level %in% c("class", "order")) %>%
  select(-qseqid) %>%
  unique()
```

    ## # A tibble: 70 × 2
    ##    taxon          taxonomic_level
    ##    <chr>          <chr>          
    ##  1 Actinopteri    class          
    ##  2 Perciformes    order          
    ##  3 Hexagrammidae  family         
    ##  4 Gadidae        family         
    ##  5 Sebastidae     family         
    ##  6 Pleuronectidae family         
    ##  7 Ammodytidae    family         
    ##  8 Stichaeidae    family         
    ##  9 Clupeidae      family         
    ## 10 Cottidae       family         
    ## # ℹ 60 more rows
…
``` r
combined_df <- sample_df %>%
  left_join(., collapsed_taxonomy, by = c("ASV" = "qseqid"))


combined_df %>%
  arrange(desc(reads)) %>%
  filter(!taxon %in% c("Callorhinus ursinus", "Acipenser", "Acipenser fulvescens", "Actinopteri", "uncultured bacterium", "Eumetopias jubatus")) %>%
  group_by(taxon) %>%
  summarise(sum(reads)) %>%
  arrange(desc(`sum(reads)`))
```

    ## # A tibble: 66 × 2
    ##    taxon                       `sum(reads)`
    ##    <chr>                              <int>
    ##  1 Leuroglossus                     1038077
    ##  2 Oncorhynchus                      767699
    ##  3 Pleurogrammus monopterygius       256001
    ##  4 Gadidae                           201526
    ##  5 Sebastidae                         52174
    ##  6 <NA>                               25722
    ##  7 Stenobrachius                      19463
    ##  8 Cymatogaster aggregata             17452
    ##  9 Pleuronectidae                     13628
    ## 10 Stichaeidae                         8244
    ## # ℹ 56 more rows

``` r
combined_df %>%
  filter(!taxon %in% c("Callorhinus ursinus", "Acipenser", "Acipenser fulvescens", "Actinopteri", "uncultured bacterium", "Eumetopias jubatus")) %>%
  filter(reads > 10) %>%
  group_by(taxon) %>%
  tally() %>%
  arrange(desc(n))
```

    ## # A tibble: 61 × 2
    ##    taxon                           n
    ##    <chr>                       <int>
    ##  1 Leuroglossus                  721
    ##  2 Oncorhynchus                  481
    ##  3 <NA>                          295
    ##  4 Sebastidae                    278
    ##  5 Gadidae                       238
    ##  6 Pleurogrammus monopterygius   206
    ##  7 Pleuronectidae                120
    ##  8 Stenobrachius                 112
    ##  9 Cymatogaster aggregata        105
    ## 10 Stichaeidae                    78
    ## # ℹ 51 more rows
…
Just two samples: 1.4% and 1.6% of reads.

So for filtering: If we used 0.2% cut-off vs. a 1% cut-off, what do we
lose in terms of species/data?

``` r
# as an experiment, it might be worth analyzing this both ways...
prop_df %>%
  filter(!ablg %in% c("PC", "NC") & !replicate %in% c("EB", "FB")) %>%
  filter(taxon != "Acipenser" | taxon != "Acipenser fulvescens") %>%
  filter(taxon_prop < 0.002)
```

    ## # A tibble: 1,112 × 9
    ## # Groups:   sample [231]
    ##    sample    ablg  plate replicate taxon taxonomic_level taxon_reads total_reads
    ##    <chr>     <chr> <chr> <chr>     <chr> <chr>                 <int>       <int>
    ##  1 e03719-p… e037… plat… b         Onco… genus                    37       34216
    ##  2 e03719-p… e037… plat… b         Sten… genus                    38       34216
    ##  3 e03719-p… e037… plat… a         Acip… genus                    13       30615
    ##  4 e03719-p… e037… plat… a         Cyma… species                  20       30615
    ##  5 e03719-p… e037… plat… a         Cott… family                   18       30615
    ##  6 e03719-p… e037… plat… a         Stic… family                   56       30615
    ##  7 e03719-p… e037… plat… a         Gast… genus                    19       30615
    ##  8 e03719-p… e037… plat… a         Blep… genus                    19       30615
    ##  9 e03719-p… e037… plat… a         Enop… species                  24       30615
    ## 10 e03719-p… e037… plat… a         Hexa… family                    9       30615
    ## # ℹ 1,102 more rows
    ## # ℹ 1 more variable: taxon_prop <dbl>
…
